London Low-Income Household Analysis
…
colnames(dataset_new) <- c(
  "Borough",
  "Average Children",
  "Standard Deviation",
  "Minimum",
  "Maximum"
)

dataset_new

## # A tibble: 33 × 5
##    Borough              `Average Children` `Standard Deviation` Minimum Maximum
##    <chr>                             <dbl>                <dbl>   <int>   <int>
##  1 Barking and Dagenham              987.                 259.      551    1750
##  2 Barnet                            588.                 340.      116    1807
##  3 Bexley                            506.                 246.      174    1469
##  4 Brent                             708.                 281.      249    1578
##  5 Bromley                           390.                 211.      113    1062
##  6 Camden                            452.                 268.       78    1373
##  7 City of London                     26.5                 31.8       5     156
##  8 Croydon                           570.                 315.       48    1508
##  9 Ealing                            640.                 314.      128    1327
## 10 Enfield                           738.                 409.      193    1895
## # ℹ 23 more rows
…
